{
  "_id": null,
  "features": {
    "audioLang": [],
    "duration": null,
    "subtitle": []
  },
  "markers": [],
  "name": null,
  "refName": null,
  "status": null,
  "type": null,
  "vcid": null,
  "videoItems": []
}